<svg width="18" height="18" viewBox="0 0 18 18" fill="none" xmlns="http://www.w3.org/2000/svg">
<path d="M17.6733 7.86409L13.746 11.4569L14.9043 16.7793C14.946 16.9699 14.9331 17.1691 14.8672 17.3522C14.8013 17.5352 14.6854 17.694 14.5338 17.8089C14.3821 17.9238 14.2015 17.9897 14.0143 17.9983C13.8271 18.007 13.6416 17.9581 13.4808 17.8577L9.00014 15.0644L4.51948 17.8592C4.35862 17.9592 4.17315 18.0079 3.98607 17.999C3.79899 17.9901 3.61852 17.9241 3.46703 17.8092C3.31555 17.6943 3.19971 17.5356 3.13389 17.3526C3.06806 17.1697 3.05515 16.9706 3.09673 16.7801L4.25459 11.4576L0.327321 7.86409C0.186258 7.73544 0.0844731 7.56642 0.0345769 7.37799C-0.0153193 7.18956 -0.0111336 6.98999 0.0466154 6.80402C0.104364 6.61805 0.213138 6.45384 0.35946 6.33174C0.505782 6.20965 0.68322 6.13503 0.86979 6.11714L6.06587 5.62536L8.12021 0.608703C8.19348 0.428211 8.31607 0.274231 8.47268 0.16598C8.62929 0.0577281 8.81299 0 9.00084 0C9.1887 0 9.3724 0.0577281 9.52901 0.16598C9.68562 0.274231 9.80821 0.428211 9.88148 0.608703L11.9341 5.62536L17.1294 6.11751C17.316 6.13531 17.4935 6.20983 17.6399 6.33185C17.7864 6.45386 17.8953 6.61801 17.9531 6.80396C18.011 6.98991 18.0154 7.18949 17.9656 7.378C17.9159 7.5665 17.8143 7.73563 17.6733 7.86446V7.86409Z" fill="#FBC11A"/>
</svg>
