<svg width="36" height="41" viewBox="0 0 36 41" fill="none" xmlns="http://www.w3.org/2000/svg">
<path d="M35.999 21.8934H33.019C33.0294 22.0899 33.0294 22.2867 33.019 22.4832C33.0185 25.2995 32.228 28.058 30.7392 30.4385C29.2504 32.819 27.1243 34.7241 24.6076 35.9325C22.0909 37.141 19.2868 37.6034 16.5206 37.266C13.7544 36.9287 11.1396 35.8054 8.97947 34.0266C6.81936 32.2477 5.20254 29.8862 4.31661 27.2161C3.43068 24.546 3.31196 21.6766 3.97422 18.941C4.63649 16.2054 6.05259 13.7157 8.05821 11.7608C10.0638 9.80584 12.5768 8.46582 15.3054 7.89618V12.4566L22.5992 7.36957V12.4566L30.935 6.71658L22.6618 0.976562V6.05306L15.3679 0.976562V4.85239C12.0342 5.4151 8.92928 6.93013 6.41975 9.21867C3.91022 11.5072 2.10085 14.4737 1.2052 17.7679C0.309547 21.0622 0.365028 24.5467 1.36508 27.8101C2.36513 31.0735 4.26801 33.9796 6.84908 36.1854C9.43016 38.3911 12.5817 39.8044 15.9316 40.2584C19.2816 40.7123 22.6901 40.1881 25.7548 38.7475C28.8196 37.3069 31.4126 35.0101 33.2278 32.1282C35.043 29.2463 36.0045 25.8996 35.999 22.4832C35.999 22.2831 35.999 22.0408 35.999 21.8934Z" fill="white"/>
<path d="M9.7002 17.6286H12.7949V29.7511H15.3164V15.3115H9.7002V17.6286Z" fill="white"/>
<path d="M26.4236 22.0401C25.0968 21.156 23.5175 20.7412 21.9327 20.8605H20.7345L21.0471 17.7009H27.153V15.3838H18.8172L18.0253 23.2197H21.4639C22.5122 23.1329 23.5642 23.3369 24.5064 23.8095C24.7531 23.9938 24.9549 24.2327 25.0962 24.508C25.2375 24.7833 25.3146 25.0876 25.3217 25.3976C25.3287 25.7076 25.2655 26.0152 25.1368 26.2967C25.0081 26.5782 24.8175 26.8262 24.5794 27.0218C23.9286 27.4626 23.152 27.6736 22.3704 27.6221C21.6178 27.6266 20.8703 27.4982 20.1614 27.243C19.5311 27.0106 18.9535 26.6524 18.463 26.1898L18.2858 25.8949L17.0771 28.0013L17.2543 28.1593C17.9261 28.7304 18.7061 29.1569 19.5466 29.4126C20.4819 29.7207 21.4596 29.8771 22.4433 29.876C23.4709 29.904 24.492 29.7026 25.4338 29.2862C26.2057 28.9319 26.8553 28.3524 27.2989 27.6221C27.7151 26.9119 27.928 26.0988 27.9137 25.2735C27.9296 24.6548 27.8033 24.0408 27.5447 23.4797C27.2862 22.9187 26.9024 22.4259 26.4236 22.0401Z" fill="white"/>
</svg>
