<svg width="18" height="16" viewBox="0 0 18 16" fill="none" xmlns="http://www.w3.org/2000/svg">
<path d="M17.9994 7.7019C17.9992 7.85915 17.9813 8.01588 17.946 8.16911L16.7455 12.5546C16.5816 13.1486 16.2277 13.6726 15.7378 14.0464C15.248 14.4201 14.6491 14.6231 14.0329 14.6242H8.43737C7.69174 14.6234 6.97689 14.3268 6.44965 13.7995C5.92241 13.2723 5.62584 12.5575 5.625 11.8118V7.05049C5.6242 6.35522 5.88123 5.68436 6.34637 5.16761L10.8317 0.18585C10.9001 0.11006 10.9877 0.054285 11.0853 0.0244981C11.1829 -0.00528868 11.2868 -0.00796495 11.3858 0.016756L12.2119 0.223113C12.463 0.285875 12.6963 0.405556 12.8938 0.572899C13.0912 0.740241 13.2475 0.95076 13.3506 1.18817C13.4536 1.42558 13.5007 1.68352 13.4882 1.94203C13.4756 2.20055 13.4038 2.45271 13.2782 2.67901L12.1068 4.78829C12.0593 4.87394 12.035 4.9705 12.0363 5.06843C12.0376 5.16636 12.0644 5.26225 12.1141 5.34663C12.1638 5.43101 12.2347 5.50094 12.3197 5.54952C12.4048 5.59809 12.501 5.62361 12.599 5.62356H15.9221C16.473 5.62431 17.0011 5.84355 17.3905 6.23318C17.78 6.62281 17.999 7.15102 17.9994 7.7019Z" fill="#44B7C7"/>
<path d="M3.93732 4.5H0.562474C0.251828 4.5 0 4.75183 0 5.06247V15.187C0 15.4976 0.251828 15.7495 0.562474 15.7495H3.93732C4.24796 15.7495 4.49979 15.4976 4.49979 15.187V5.06247C4.49979 4.75183 4.24796 4.5 3.93732 4.5Z" fill="#44B7C7"/>
</svg>
